{
  "CN": "Wikimedia dcl Root CA",
  "key": {
    "algo": "rsa",
    "size": 2048
  },
  "names": [
    {
      "O": "Wikimedia Foundation",
      "OU": "SRE Testing"
    }
  ],
  "ca": {
    "expiry": "438000h"
  }
}
